%YAML 1.1
%TAG !u! tag:unity3d.com,2011:
--- !u!1045 &1
EditorBuildSettings:
  m_ObjectHideFlags: 0
  serializedVersion: 2
  m_Scenes:
  - enabled: 1
    path: Assets/Scenes/SampleScene.unity
    guid: 9fc0d4010bbf28b4594072e72b8655ab
  m_configObjects:
    com.unity.xr.management.loader_settings: {fileID: 11400000, guid: fc5553ae522804640907171b1baef063, type: 2}
    com.unity.xr.openxr.settings4: {fileID: 11400000, guid: 24fcb4e97ed34c0488b2f6760f32069b, type: 2}
